-999 255 255 255 0
0% 255 255 255 0
0.10   134     182     240  125
0.25   56      139     247  255
0.75   26      79      162  255
1.00   125     225     68   255
1.50   90      164     48   255
2.00   48      113     79   255
3.00   227     247     125  255
4.00   215     168     57   255
5.00   201     116     42   255
10.0   255     79      51   255
15.0   224     17      0    255
20.0   122     9       0    255
25.0   238     126     218  255
50.0   152     120     226  255
255.0  225     255     255  255
999.   255.    255.    255  0 
nv     255.    255.    255. 0 
100% 255 255 255 255